M48
;Layer_Color=9474304
;FILE_FORMAT=2:5
INCH,LZ
;TYPE=PLATED
T1F00S00C0.02756
T2F00S00C0.02800
T3F00S00C0.03543
T4F00S00C0.04000
T6F00S00C0.12598
%
T01
X0219488Y0066929
Y0074803
X0298228
Y0066929
X0140748
Y0074803
X0093504
Y0066929
X005315Y0069882
X0045276
X0020669
X0012795
T02
X0249016Y0120079
X0268701Y0135827
X0329724
Y0120079
X0312008Y0166339
X0236221
X0190945Y0135827
X0173228Y0120079
X015748Y0166339
X007874
X005315Y0155512
X0108268Y0135827
X0093504Y0120079
X0340551Y0197835
X034941Y0209646
T03
X0213583Y003937
X0227362
X0199803
X0186024
X0172244
X0051181
X0037402
X0023622
X0212598Y0378937
X0226378
X0198819
X0185039
X017126
T04
X0043307Y0212598
X0053307
X0063307
X0073307
X0068307Y0227598
X0048307
X0127047
X0137047
X0147047
X0142047Y0212598
X0132047
X0122047
X0152047
X0200787
X0210787
X0220787
X0230787
X0225787Y0227598
X0215787
X0205787
X0284528
X0294528
X0304528
X0299528Y0212598
X0289528
X0279528
X0309528
T06
X0031496Y0314961
X0322835
M30
