gics.c:123:6:gics_udp_server_init	8	static
gics.c:158:6:WRITE_MCP	24	static
gics.c:173:6:READ_MCP	24	static
gics.c:184:6:gics_update_DAC_vars	8	static
gics.c:14:6:gics_udp_server_receive_callback	48	static
gics.c:201:6:Update_DAC_Handler	32	static
gics.c:227:6:gics_init_DAC_vars	32	static
